<?xml version="1.0" encoding="utf-8"?>
<!-- Generator: Adobe Illustrator 23.0.1, SVG Export Plug-In . SVG Version: 6.00 Build 0)  -->
<svg version="1.1" id="Layer_1" xmlns="http://www.w3.org/2000/svg" xmlns:xlink="http://www.w3.org/1999/xlink" x="0px" y="0px"
	 viewBox="0 0 24 24" style="enable-background:new 0 0 24 24;" xml:space="preserve">
<style type="text/css">
	.st0{fill:none;stroke:#3D3D3D;stroke-miterlimit:10;}
</style>
<path id="iconfinder_paper-clip-80px_510923_3_" class="st0" d="M17.5,8.8l-7.3,7.3C9.3,17,7.9,16.9,7.1,16s-0.8-2.2,0-3.1l7.3-7.3
	c1.7-1.7,4.6-1.7,6.3,0s1.7,4.6,0,6.3l0,0l-7.3,7.3c-2.6,2.6-6.9,2.5-9.5-0.1c-2.5-2.6-2.5-6.7,0-9.3l6.9-6.9"/>
</svg>
