<?xml version="1.0" encoding="utf-8"?>
<!-- Generator: Adobe Illustrator 23.0.1, SVG Export Plug-In . SVG Version: 6.00 Build 0)  -->
<svg version="1.1" id="Layer_1" xmlns="http://www.w3.org/2000/svg" xmlns:xlink="http://www.w3.org/1999/xlink" x="0px" y="0px"
	 viewBox="0 0 16 16" style="enable-background:new 0 0 16 16;" xml:space="preserve">
<style type="text/css">
	.st0{fill:none;stroke:#0862AF;stroke-width:1.4;stroke-linecap:round;stroke-linejoin:round;}
</style>
<g id="iconfinder_copy_3325102" transform="translate(-1.3 -1.301)">
	<path id="Rectangle_738" class="st0" d="M9.6,7.6h4.2c1.1,0,2,0.9,2,2v4.2c0,1.1-0.9,2-2,2H9.6c-1.1,0-2-0.9-2-2V9.6
		C7.6,8.5,8.5,7.6,9.6,7.6z"/>
	<path id="Path_1655" class="st0" d="M4.7,11H4.1c-0.7,0-1.3-0.6-1.3-1.3c0,0,0,0,0,0V4.1c0-0.7,0.6-1.3,1.3-1.3h5.7
		c0.7,0,1.3,0.6,1.3,1.3c0,0,0,0,0,0v0.6"/>
</g>
</svg>
