<?xml version="1.0" encoding="utf-8"?>
<!-- Generator: Adobe Illustrator 23.0.1, SVG Export Plug-In . SVG Version: 6.00 Build 0)  -->
<svg version="1.1" id="Layer_1" xmlns="http://www.w3.org/2000/svg" xmlns:xlink="http://www.w3.org/1999/xlink" x="0px" y="0px"
	 viewBox="0 0 16 16" style="enable-background:new 0 0 16 16;" xml:space="preserve">
<style type="text/css">
	.st0{fill:#3D3D3D;enable-background:new    ;}
</style>
<path class="st0" d="M14.9,1.9c-0.1-0.2-0.4-0.4-0.6-0.4H1.7c-0.3,0-0.5,0.2-0.6,0.4C1,2.2,1,2.5,1.2,2.7l4.8,5.8v5.3
	c0,0.2,0.1,0.5,0.3,0.6c0.1,0.1,0.2,0.1,0.4,0.1c0.1,0,0.2,0,0.3-0.1l2.7-1.3c0.2-0.1,0.4-0.4,0.4-0.6l0-3.9l4.8-5.8
	C15,2.5,15,2.2,14.9,1.9z M7.2,7.8L3.2,3h9.5l-4,4.8C8.7,7.9,8.6,8,8.6,8.2l0,3.8l-1.3,0.6V8.2C7.4,8,7.3,7.9,7.2,7.8z"/>
</svg>
