<?xml version="1.0" encoding="utf-8"?>
<!-- Generator: Adobe Illustrator 23.0.1, SVG Export Plug-In . SVG Version: 6.00 Build 0)  -->
<svg version="1.1" id="Layer_1" xmlns="http://www.w3.org/2000/svg" xmlns:xlink="http://www.w3.org/1999/xlink" x="0px" y="0px"
	 viewBox="0 0 16 16" style="enable-background:new 0 0 16 16;" xml:space="preserve">
<style type="text/css">
	.st0{fill:#3D3D3D;enable-background:new    ;}
</style>
<path id="if_chart-flexible-date-stat-statistics_2075834" class="st0" d="M14.5,14.5v-11h-4v-3h-5v9h-4v5H0v1h16v-1H14.5z
	 M2.5,14.5v-4h3v4H2.5z M6.5,14.5v-13h3v13H6.5z M10.5,14.5v-10h3v10H10.5z"/>
</svg>
