<?xml version="1.0" encoding="utf-8"?>
<!-- Generator: Adobe Illustrator 23.0.1, SVG Export Plug-In . SVG Version: 6.00 Build 0)  -->
<svg version="1.1" id="Layer_1" xmlns="http://www.w3.org/2000/svg" xmlns:xlink="http://www.w3.org/1999/xlink" x="0px" y="0px"
	 viewBox="0 0 16 16" style="enable-background:new 0 0 16 16;" xml:space="preserve">
<style type="text/css">
	.st0{fill:#FFFFFF;stroke:#FFFFFF;stroke-width:0.5;}
</style>
<g id="Слой_2_2_" transform="translate(0.294 0.33)">
	<g id="XMLID_4_" transform="translate(3.552 7.713)">
		<path id="Path_45_1_" class="st0" d="M7.6,7C6.2,6.9,4.9,6.5,3.8,5.7C2.6,5,1.6,4.2,0.7,3.3l0.6-0.5C2.1,3.7,3.1,4.4,4.2,5l0,0
			c2.9,1.8,4.7,1,5,0.8l1.1-1.1c0.2-0.2,0.1-0.6,0-0.7L7.9,1.7c-0.2-0.2-0.5-0.2-0.7,0l0,0L5.6,3.3H5.4C4.6,3.1,3,1.6,2.7,1.3
			l0.5-0.6c0.6,0.7,1.4,1.2,2.1,1.7l1.3-1.3c0.5-0.5,1.3-0.5,1.7,0l0,0l2.5,2.5v0.1c0.3,0.5,0.3,1.2-0.1,1.6L9.6,6.4l0,0
			C9,6.8,8.3,7,7.6,7z"/>
	</g>
	<g id="XMLID_1_" transform="translate(0.016 -0.042)">
		<path id="Path_46_1_" class="st0" d="M4.3,11.2c-0.9-0.9-1.7-2-2.4-3.1C-0.3,4.6,1,2.4,1.1,2.3l0,0L2.4,1C2.8,0.6,3.5,0.6,4,0.9
			h0.1l2.5,2.5C7,3.9,7,4.6,6.5,5.1L5.2,6.5C5.7,7.3,6.3,8,6.9,8.6L6.4,9.1c-0.8-0.8-1.5-1.7-2-2.7V6.2L6,4.6c0.2-0.2,0.2-0.5,0-0.7
			l0,0L3.6,1.6c-0.1,0-0.5-0.2-0.7,0L1.8,2.7c-0.1,0.3-1,2.1,0.8,5l0,0c0.6,1.1,1.4,2.1,2.3,3L4.3,11.2z"/>
	</g>
</g>
</svg>
