<?xml version="1.0" encoding="utf-8"?>
<!-- Generator: Adobe Illustrator 23.0.1, SVG Export Plug-In . SVG Version: 6.00 Build 0)  -->
<svg version="1.1" id="Layer_1" xmlns="http://www.w3.org/2000/svg" xmlns:xlink="http://www.w3.org/1999/xlink" x="0px" y="0px"
	 viewBox="0 0 24 24" style="enable-background:new 0 0 24 24;" xml:space="preserve">
<style type="text/css">
	.st0{fill:#FFFFFF;}
</style>
<path class="st0" d="M23.5,15.1l-8-4.8l-3.4-8.8C12,1.1,11.8,1,11.5,0.9l0,0c-0.3,0-0.5,0.1-0.7,0.4L0.3,22.1l0,0l-0.1,0.2v0.1v0.1
	v0.2l0.1,0.1l0,0l0.1,0.1c0.1,0.1,0.2,0.2,0.4,0.2c0.1,0,0.2,0,0.2,0c0.1,0,0.1,0,0.1,0l22.2-6.7c0.3-0.1,0.5-0.3,0.5-0.6
	C23.9,15.4,23.7,15.3,23.5,15.1z M3.5,19l7.8-15.5l2.7,7l-0.1,0.1L3.7,19.2L3.5,19z M4.7,20.5l-0.1-0.3l10.3-8.7l6.4,3.9L4.7,20.5z"
	/>
</svg>
