<?xml version="1.0" encoding="utf-8"?>
<!-- Generator: Adobe Illustrator 23.0.1, SVG Export Plug-In . SVG Version: 6.00 Build 0)  -->
<svg version="1.1" id="Layer_1" xmlns="http://www.w3.org/2000/svg" xmlns:xlink="http://www.w3.org/1999/xlink" x="0px" y="0px"
	 viewBox="0 0 24 24" style="enable-background:new 0 0 24 24;" xml:space="preserve">
<style type="text/css">
	.st0{fill:none;stroke:#B1B1B1;stroke-width:1.5;stroke-linecap:round;stroke-linejoin:round;}
</style>
<g id="users_2_">
	<g id="iconfinder_user_3325167_1_" transform="translate(-3.25 -2.25)">
		<path id="Path_1644_3_" class="st0" d="M18.3,23.3v-2c0-2.2-1.8-4-4-4H8.4c-2.2,0-4.3,1.8-4.3,4v2"/>
		<circle id="Ellipse_142_3_" class="st0" cx="10.3" cy="9.3" r="4"/>
	</g>
	<g id="iconfinder_user_3325167-2_1_" transform="translate(6.75 -2.25)">
		<path id="Path_1644-2_1_" class="st0" d="M16.5,23.3v-2c0-2.2-1.8-4-4-4H9.6"/>
		<circle id="Ellipse_142-2_1_" class="st0" cx="10.3" cy="9.3" r="4"/>
	</g>
</g>
</svg>
