<?xml version="1.0" encoding="utf-8"?>
<!-- Generator: Adobe Illustrator 23.0.1, SVG Export Plug-In . SVG Version: 6.00 Build 0)  -->
<svg version="1.1" id="Layer_1" xmlns="http://www.w3.org/2000/svg" xmlns:xlink="http://www.w3.org/1999/xlink" x="0px" y="0px"
	 viewBox="0 0 24 24" style="enable-background:new 0 0 24 24;" xml:space="preserve">
<style type="text/css">
	.st0{fill:#B1B1B1;}
</style>
<g id="wifi_1_">
	<path class="st0" d="M23.6,8.3L23.6,8.3c-6.4-6.4-16.8-6.4-23.2,0c-0.3,0.3-0.3,0.8,0,1.1c0.3,0.3,0.8,0.3,1.1,0
		c5.8-5.8,15.2-5.8,21,0c0.2,0.1,0.3,0.2,0.6,0.2c0.2,0,0.4-0.1,0.6-0.2c0.2-0.1,0.2-0.3,0.2-0.6C23.8,8.6,23.8,8.4,23.6,8.3z"/>
	<path class="st0" d="M2.8,10.7L2.8,10.7c-0.3,0.3-0.3,0.8,0,1.1c0.3,0.3,0.8,0.3,1.1,0c4.4-4.4,11.6-4.4,16.1,0
		c0.2,0.2,0.4,0.2,0.6,0.2c0.2,0,0.4-0.1,0.6-0.2c0.2-0.2,0.2-0.3,0.2-0.6c0-0.2-0.1-0.4-0.2-0.6C16.1,5.7,7.9,5.7,2.8,10.7z"/>
	<path class="st0" d="M12,10.4C12,10.4,12,10.4,12,10.4c-2.5,0-5,1-6.7,2.8C5,13.5,5,14,5.3,14.3c0.2,0.2,0.4,0.2,0.6,0.2
		s0.4-0.1,0.6-0.2c3.1-3.1,8.1-3.1,11.2,0c0.3,0.3,0.8,0.3,1.1,0c0.3-0.3,0.3-0.8,0-1.1C17,11.4,14.5,10.4,12,10.4z"/>
	<path class="st0" d="M12,14.3L12,14.3c-1.7,0-3.1,1.4-3.1,3.1s1.4,3.1,3.1,3.1s3.1-1.4,3.1-3.1C15.1,15.7,13.7,14.3,12,14.3z
		 M13.5,17.4c0,0.8-0.7,1.5-1.5,1.5c-0.8,0-1.5-0.7-1.5-1.5s0.7-1.5,1.5-1.5S13.5,16.6,13.5,17.4z"/>
</g>
</svg>
