<?xml version="1.0" encoding="utf-8"?>
<!-- Generator: Adobe Illustrator 23.0.1, SVG Export Plug-In . SVG Version: 6.00 Build 0)  -->
<svg version="1.1" id="Layer_1" xmlns="http://www.w3.org/2000/svg" xmlns:xlink="http://www.w3.org/1999/xlink" x="0px" y="0px"
	 viewBox="0 0 24 24" style="enable-background:new 0 0 24 24;" xml:space="preserve">
<style type="text/css">
	.st0{enable-background:new    ;}
	.st1{fill:#3E3E3E;}
</style>
<g class="st0">
	<path class="st1" d="M10,16.3H8.3L4.1,9.5h0l0,0.4c0.1,0.7,0.1,1.4,0.1,2v4.5H2.9V7.7h1.7l4.2,6.8h0c0-0.1,0-0.4,0-1s0-1,0-1.3V7.7
		H10V16.3z"/>
	<path class="st1" d="M16,16.3l-2.5-7.2h0c0.1,1.1,0.1,2.1,0.1,3v4.2h-1.3V7.7h2l2.4,6.8h0l2.4-6.8h2v8.6h-1.3V12c0-0.4,0-1,0-1.7
		s0-1.1,0.1-1.2h0l-2.6,7.1H16z"/>
</g>
</svg>
