<?xml version="1.0" encoding="utf-8"?>
<!-- Generator: Adobe Illustrator 23.0.1, SVG Export Plug-In . SVG Version: 6.00 Build 0)  -->
<svg version="1.1" id="Layer_1" xmlns="http://www.w3.org/2000/svg" xmlns:xlink="http://www.w3.org/1999/xlink" x="0px" y="0px"
	 viewBox="0 0 24 24" style="enable-background:new 0 0 24 24;" xml:space="preserve">
<style type="text/css">
	.st0{fill:#3E3E3E;}
</style>
<path id="Path_1631" class="st0" d="M15.8,17.6H8.1V5.2h7.7V17.6z M11.4,18.9c0-0.3,0.3-0.6,0.6-0.6c0.3,0,0.6,0.3,0.6,0.6
	c0,0.3-0.3,0.6-0.6,0.6C11.7,19.5,11.4,19.3,11.4,18.9 M16.4,19.5L16.4,19.5v-15l0,0l0,0l0,0c0-0.3-0.3-0.6-0.6-0.6H8.3
	c-0.3,0-0.6,0.3-0.6,0.6l0,0v15l0,0c0,0,0,0,0,0c0,0.3,0.3,0.6,0.6,0.6c0,0,0,0,0,0h7.5C16.1,20.1,16.4,19.8,16.4,19.5
	C16.4,19.5,16.4,19.5,16.4,19.5C16.4,19.5,16.4,19.5,16.4,19.5"/>
</svg>
