<?xml version="1.0" encoding="utf-8"?>
<!-- Generator: Adobe Illustrator 23.0.1, SVG Export Plug-In . SVG Version: 6.00 Build 0)  -->
<svg version="1.0" id="Layer_1" xmlns="http://www.w3.org/2000/svg" xmlns:xlink="http://www.w3.org/1999/xlink" x="0px" y="0px"
	 viewBox="0 0 24 24" style="enable-background:new 0 0 24 24;" xml:space="preserve">
<style type="text/css">
	.st0{fill:#FFFFFF;}
</style>
<g>
	<path class="st0" d="M9.7,14.8h4.7c1.3,0,2.4-1.1,2.4-2.3s-1.1-2.3-2.4-2.3H9.7c-1.3,0-2.4,1.1-2.4,2.3S8.4,14.8,9.7,14.8z
		 M9.7,11.3h4.6h0.1c0.6,0,1.2,0.5,1.2,1.2s-0.5,1.2-1.2,1.2H9.7c-0.6,0-1.2-0.5-1.2-1.2S9,11.3,9.7,11.3z"/>
	<path class="st0" d="M0.3,1.9v5.9h1.2v15.3h21.2V7.8h1.2V1.9H0.3z M21.4,21.9H2.6V7.8h18.8V21.9z M22.6,6.6H1.4V3.1h21.2V6.6z"/>
</g>
</svg>
