<?xml version="1.0" encoding="utf-8"?>
<!-- Generator: Adobe Illustrator 23.0.1, SVG Export Plug-In . SVG Version: 6.00 Build 0)  -->
<svg version="1.0" id="Layer_1" xmlns="http://www.w3.org/2000/svg" xmlns:xlink="http://www.w3.org/1999/xlink" x="0px" y="0px"
	 viewBox="0 0 24 24" style="enable-background:new 0 0 24 24;" xml:space="preserve">
<style type="text/css">
	.st0{fill:#053853;}
</style>
<g>
	<path class="st0" d="M15.9,12.8L15,14c0.1,0,0.1,0,0.2,0c2.2,0,4,1.8,4,4s-1.8,4-4,4c-1.8,0-3.3-1.2-3.8-2.8l-0.8,1.2
		c0.8,1.8,2.6,2.9,4.7,2.9c2.9,0,5.2-2.3,5.2-5.2C20.4,15.4,18.4,13.2,15.9,12.8z"/>
	<path class="st0" d="M8.8,12.2l1-1.4C9.5,10.9,9.1,11,8.7,11c-2.2,0-4-1.8-4-4s1.8-4,4-4c2.1,0,3.9,1.7,4,3.8l1-1.4
		C13,3.2,11,1.8,8.7,1.8C5.9,1.8,3.5,4.1,3.5,7S5.9,12.2,8.8,12.2L8.8,12.2z"/>
	<polygon class="st0" points="18.5,2.7 5.2,21.3 6.2,22.1 19.6,3.4 	"/>
</g>
</svg>
